<svg width="240" height="44" viewBox="0 0 240 44" fill="none" xmlns="http://www.w3.org/2000/svg">
<path d="M20.7262 5.316C20.8222 5.276 20.9142 5.252 21.0022 5.244C21.0902 5.228 21.1742 5.22 21.2542 5.22C21.4622 5.22 21.6422 5.268 21.7942 5.364C21.9462 5.46 22.0422 5.592 22.0822 5.76L22.0702 5.736C22.1022 5.84 22.1022 5.948 22.0702 6.06C22.0462 6.164 21.9982 6.268 21.9262 6.372C21.8542 6.468 21.7622 6.556 21.6502 6.636C21.5382 6.708 21.4142 6.768 21.2782 6.816C21.2542 6.824 21.2022 6.844 21.1222 6.876C21.0902 6.892 21.0582 6.9 21.0262 6.9C20.9782 6.908 20.9382 6.916 20.9062 6.924C20.8822 6.932 20.8582 6.94 20.8342 6.948C20.8422 6.948 20.8462 6.952 20.8462 6.96C20.6942 7.008 20.4782 7.092 20.1982 7.212C19.9182 7.324 19.5742 7.496 19.1662 7.728C18.6942 7.992 18.0902 8.392 17.3542 8.928C16.6182 9.464 15.7662 10.16 14.7982 11.016C13.8142 11.912 12.6822 13.04 11.4022 14.4C10.1302 15.752 8.74219 17.384 7.23819 19.296C6.85419 19.784 6.48219 20.264 6.12219 20.736C5.77019 21.2 5.43019 21.66 5.10219 22.116L5.11419 22.104C5.09819 22.12 5.08219 22.14 5.06619 22.164C5.05819 22.18 5.04619 22.196 5.03019 22.212L4.94619 22.32C4.90619 22.384 4.86619 22.444 4.82619 22.5C4.78619 22.556 4.74619 22.616 4.70619 22.68C4.60219 22.856 4.46619 23.096 4.29819 23.4C4.13019 23.704 3.94619 24.008 3.74619 24.312C3.55419 24.616 3.35419 24.884 3.14619 25.116C2.94619 25.356 2.75819 25.488 2.58219 25.512C2.40619 25.544 2.24619 25.436 2.10219 25.188C1.96619 24.948 1.86619 24.504 1.80219 23.856C1.77819 23.616 1.72219 23.376 1.63419 23.136C1.55419 22.896 1.49019 22.66 1.44219 22.428C1.40219 22.244 1.36219 22.048 1.32219 21.84C1.29019 21.624 1.25419 21.408 1.21419 21.192C1.18219 20.976 1.14619 20.768 1.10619 20.568C1.07419 20.368 1.04619 20.184 1.02219 20.016V20.028C1.01419 19.996 1.01019 19.968 1.01019 19.944C1.01019 19.92 1.00619 19.892 0.998188 19.86C0.790188 18.38 0.642188 17.048 0.554188 15.864C0.466188 14.672 0.394188 13.62 0.338188 12.708C0.338188 12.668 0.334188 12.632 0.326187 12.6C0.326187 12.56 0.326187 12.52 0.326187 12.48C0.318188 12.44 0.314188 12.396 0.314188 12.348C0.314188 12.292 0.310188 12.244 0.302188 12.204C0.262188 11.42 0.230188 10.732 0.206188 10.14C0.182188 9.548 0.158188 9.04 0.134188 8.616C0.118188 8.192 0.106188 7.844 0.0981876 7.572C0.0901875 7.3 0.0861875 7.092 0.0861875 6.948C0.0861875 6.908 0.0821876 6.876 0.0741876 6.852C0.0741876 6.82 0.0741876 6.792 0.0741876 6.768V6.696C0.0821876 6.384 0.162188 6.12 0.314188 5.904C0.474188 5.688 0.662188 5.58 0.878188 5.58C0.990188 5.58 1.09419 5.612 1.19019 5.676C1.28619 5.732 1.37019 5.812 1.44219 5.916C1.51419 6.012 1.57019 6.128 1.61019 6.264C1.65819 6.4 1.68219 6.544 1.68219 6.696C1.68219 6.744 1.68219 6.792 1.68219 6.84C1.68219 6.888 1.67819 6.936 1.67019 6.984V6.972C1.66219 7.06 1.65419 7.172 1.64619 7.308C1.63819 7.436 1.63019 7.612 1.62219 7.836C1.62219 8.052 1.61819 8.328 1.61019 8.664C1.61019 8.992 1.61019 9.4 1.61019 9.888V10.656C1.61819 11.064 1.62619 11.52 1.63419 12.024C1.64219 12.52 1.65819 13.072 1.68219 13.68C1.71419 14.288 1.75419 14.956 1.80219 15.684C1.85019 16.404 1.91419 17.192 1.99419 18.048C2.03419 18.456 2.08219 18.896 2.13819 19.368C2.19419 19.84 2.26219 20.312 2.34219 20.784C2.40619 21.2 2.47819 21.624 2.55819 22.056C2.63819 22.488 2.73819 22.924 2.85819 23.364C3.01019 23.14 3.16619 22.908 3.32619 22.668C3.49419 22.428 3.65819 22.2 3.81819 21.984C4.18619 21.464 4.58619 20.916 5.01819 20.34C5.45019 19.756 5.89019 19.184 6.33819 18.624C7.72219 16.888 9.02619 15.348 10.2502 14.004C11.4822 12.652 12.5542 11.532 13.4662 10.644C14.3862 9.764 15.2022 9.032 15.9142 8.448C16.6262 7.864 17.2182 7.404 17.6902 7.068C18.0742 6.804 18.4062 6.588 18.6862 6.42C18.9662 6.244 19.2102 6.096 19.4182 5.976C19.4182 5.968 19.4302 5.96 19.4542 5.952C19.4862 5.936 19.5102 5.92 19.5262 5.904L19.5142 5.916C19.5222 5.908 19.5302 5.904 19.5382 5.904C19.5462 5.904 19.5542 5.9 19.5622 5.892C19.5862 5.868 19.6222 5.84 19.6702 5.808C19.8782 5.696 20.0582 5.604 20.2102 5.532C20.3702 5.452 20.5462 5.376 20.7382 5.304L20.7262 5.316ZM44.1247 17.556C44.2207 17.764 44.2127 17.976 44.1007 18.192C43.9887 18.4 43.8247 18.56 43.6087 18.672C43.5607 18.696 43.4847 18.716 43.3807 18.732C43.3727 18.732 43.3687 18.736 43.3687 18.744C43.3687 18.744 43.3647 18.744 43.3567 18.744C43.3327 18.752 43.2927 18.764 43.2367 18.78C43.1887 18.788 43.1167 18.808 43.0207 18.84C42.9327 18.872 42.8127 18.916 42.6607 18.972C42.5167 19.028 42.3327 19.096 42.1087 19.176C41.7567 19.304 41.3087 19.472 40.7647 19.68C40.2287 19.88 39.5487 20.132 38.7247 20.436C37.9007 20.74 36.9247 21.096 35.7967 21.504C34.6687 21.904 33.3327 22.34 31.7887 22.812C30.2207 23.284 28.7847 23.656 27.4807 23.928C26.1767 24.192 24.9767 24.336 23.8807 24.36C23.3207 24.368 22.7847 24.328 22.2727 24.24C21.7607 24.16 21.2887 24 20.8567 23.76C20.3927 23.488 20.0407 23.152 19.8007 22.752C19.6887 22.552 19.5967 22.344 19.5247 22.128C19.4607 21.912 19.4207 21.72 19.4047 21.552C19.3807 21.192 19.3927 20.864 19.4407 20.568C19.4967 20.272 19.5527 20.004 19.6087 19.764C19.6967 19.484 19.7647 19.264 19.8127 19.104C19.8687 18.936 19.9207 18.796 19.9687 18.684C20.0567 18.468 20.1407 18.28 20.2207 18.12C20.3087 17.952 20.3727 17.836 20.4127 17.772C20.4767 17.668 20.5567 17.58 20.6527 17.508C20.7487 17.436 20.8487 17.384 20.9527 17.352C21.0567 17.32 21.1607 17.312 21.2647 17.328C21.3767 17.344 21.4807 17.38 21.5767 17.436C21.7367 17.556 21.8407 17.72 21.8887 17.928C21.9367 18.136 21.9127 18.332 21.8167 18.516V18.504C21.7767 18.6 21.7527 18.652 21.7447 18.66C21.7367 18.668 21.7287 18.68 21.7207 18.696C21.6967 18.736 21.6647 18.784 21.6247 18.84C21.5847 18.896 21.5367 18.968 21.4807 19.056C21.4407 19.112 21.3967 19.188 21.3487 19.284C21.3007 19.38 21.2447 19.496 21.1807 19.632V19.62C21.1167 19.764 21.0487 19.924 20.9767 20.1C20.9127 20.276 20.8567 20.472 20.8087 20.688H20.8207C20.7967 20.8 20.7767 20.916 20.7607 21.036C20.7447 21.156 20.7367 21.28 20.7367 21.408C20.7447 21.536 20.7607 21.664 20.7847 21.792C20.8087 21.912 20.8527 22.024 20.9167 22.128C20.9807 22.24 21.0727 22.352 21.1927 22.464C21.3127 22.568 21.4527 22.664 21.6127 22.752C21.9807 22.936 22.4007 23.052 22.8727 23.1C23.2167 23.148 23.5727 23.172 23.9407 23.172C24.3167 23.172 24.7327 23.148 25.1887 23.1C25.6447 23.052 26.1127 22.992 26.5927 22.92C26.9367 22.864 27.3047 22.796 27.6967 22.716C28.0967 22.628 28.5047 22.532 28.9207 22.428C29.3447 22.324 29.7687 22.216 30.1927 22.104C30.6247 21.984 31.0447 21.864 31.4527 21.744C32.0847 21.552 32.7047 21.352 33.3127 21.144C33.9287 20.936 34.5127 20.732 35.0647 20.532C35.6247 20.332 36.1407 20.144 36.6127 19.968C37.0927 19.784 37.5127 19.62 37.8727 19.476C38.5767 19.196 39.2047 18.94 39.7567 18.708C40.3087 18.468 40.7447 18.276 41.0647 18.132H41.0527C41.4527 17.948 41.7567 17.804 41.9647 17.7C42.1727 17.588 42.3407 17.5 42.4687 17.436C42.5647 17.388 42.6527 17.348 42.7327 17.316C42.8127 17.276 42.9007 17.236 42.9967 17.196C43.2287 17.108 43.4527 17.1 43.6687 17.172C43.8847 17.244 44.0367 17.372 44.1247 17.556ZM25.6087 11.724C25.5367 11.732 25.4647 11.74 25.3927 11.748C25.3207 11.756 25.2527 11.764 25.1887 11.772C25.1407 11.78 25.0927 11.788 25.0447 11.796C24.9967 11.796 24.9527 11.8 24.9127 11.808C24.4647 11.864 24.0887 11.908 23.7847 11.94C23.4807 11.964 23.2247 11.976 23.0167 11.976C22.6327 11.976 22.3647 11.916 22.2127 11.796C22.0687 11.676 21.9887 11.488 21.9727 11.232C21.9567 11 22.0087 10.804 22.1287 10.644C22.2487 10.484 22.3887 10.404 22.5487 10.404C22.5647 10.404 22.5847 10.404 22.6087 10.404C22.6407 10.404 22.6807 10.412 22.7287 10.428L22.7167 10.416C22.7727 10.432 22.8847 10.448 23.0527 10.464C23.2207 10.48 23.5127 10.488 23.9287 10.488C24.2727 10.488 24.7087 10.48 25.2367 10.464C25.7647 10.448 26.4287 10.416 27.2287 10.368C27.8447 10.328 28.3487 10.292 28.7407 10.26C29.1407 10.22 29.4607 10.184 29.7007 10.152C29.9407 10.112 30.1167 10.08 30.2287 10.056C30.3407 10.024 30.4247 9.996 30.4807 9.972C30.5207 9.956 30.5527 9.948 30.5767 9.948C30.6087 9.94 30.6447 9.932 30.6847 9.924C30.7647 9.892 30.8527 9.868 30.9487 9.852C31.0447 9.828 31.1327 9.828 31.2127 9.852C31.3007 9.876 31.3727 9.932 31.4287 10.02C31.4927 10.1 31.5327 10.232 31.5487 10.416C31.5567 10.616 31.5087 10.776 31.4047 10.896C31.3087 11.008 31.1527 11.1 30.9367 11.172C30.7287 11.244 30.4647 11.296 30.1447 11.328C29.8247 11.36 29.4487 11.392 29.0167 11.424H29.0287C28.9807 11.432 28.9287 11.436 28.8727 11.436C28.8167 11.436 28.7607 11.44 28.7047 11.448C28.2967 11.48 27.8327 11.516 27.3127 11.556C26.8007 11.596 26.2327 11.652 25.6087 11.724ZM62.6628 17.412C62.7108 17.508 62.7188 17.616 62.6868 17.736C62.6628 17.856 62.6068 17.976 62.5188 18.096C62.4308 18.216 62.3148 18.332 62.1708 18.444C62.0348 18.548 61.8788 18.64 61.7028 18.72C61.6468 18.744 61.5868 18.768 61.5228 18.792C61.4668 18.816 61.4188 18.836 61.3788 18.852C61.2828 18.892 61.1308 18.956 60.9228 19.044C60.7148 19.124 60.3948 19.252 59.9628 19.428V19.44C59.5948 19.592 59.1228 19.788 58.5468 20.028C57.9788 20.26 57.2668 20.568 56.4108 20.952C56.3628 20.976 56.3028 21.008 56.2308 21.048C56.1588 21.08 56.0988 21.104 56.0508 21.12L56.0628 21.108C55.9988 21.14 55.9308 21.168 55.8588 21.192C55.7948 21.216 55.7308 21.244 55.6668 21.276C55.6348 21.292 55.5908 21.312 55.5348 21.336C55.4868 21.36 55.4468 21.38 55.4148 21.396C54.6228 21.756 53.7188 22.172 52.7028 22.644C51.6948 23.108 50.5628 23.652 49.3068 24.276C48.4988 24.676 47.6228 25.144 46.6788 25.68C45.7428 26.216 44.7788 26.812 43.7868 27.468C43.3148 27.78 42.8228 28.132 42.3108 28.524C41.7988 28.924 41.2868 29.352 40.7748 29.808C40.2628 30.272 39.7628 30.76 39.2748 31.272C38.7788 31.784 38.3228 32.312 37.9068 32.856C37.4268 33.536 37.0108 34.184 36.6588 34.8C36.3068 35.416 36.0108 35.952 35.7708 36.408L35.6628 36.624C35.5348 36.88 35.4148 37.124 35.3028 37.356C35.1908 37.588 35.0828 37.816 34.9788 38.04C34.8668 38.272 34.7588 38.504 34.6548 38.736C34.5428 38.968 34.4348 39.208 34.3308 39.456C34.2188 39.712 34.1228 39.976 34.0428 40.248C33.9628 40.528 33.8348 40.812 33.6588 41.1C33.5068 41.356 33.3308 41.648 33.1308 41.976C32.9228 42.304 32.7228 42.608 32.5308 42.888C32.3388 43.168 32.1668 43.392 32.0148 43.56C31.8548 43.728 31.7388 43.776 31.6668 43.704C31.5948 43.64 31.5828 43.424 31.6308 43.056C31.6788 42.696 31.8148 42.124 32.0388 41.34C32.1668 40.892 32.3188 40.416 32.4948 39.912C32.6708 39.416 32.8708 38.88 33.0948 38.304C33.3188 37.736 33.5668 37.124 33.8388 36.468C34.1108 35.812 34.4108 35.104 34.7388 34.344C35.4028 32.816 36.0188 31.432 36.5868 30.192C37.1548 28.952 37.6788 27.82 38.1588 26.796C38.3588 26.356 38.5588 25.932 38.7588 25.524C38.9988 25.02 39.2228 24.548 39.4308 24.108C39.6388 23.668 39.8348 23.256 40.0188 22.872C40.0428 22.824 40.0668 22.78 40.0908 22.74C40.1068 22.692 40.1268 22.644 40.1508 22.596V22.608C40.2068 22.488 40.2588 22.372 40.3068 22.26C40.3548 22.14 40.4068 22.028 40.4628 21.924C40.6708 21.492 40.8628 21.096 41.0388 20.736C41.2148 20.368 41.3708 20.044 41.5068 19.764C41.6268 19.508 41.7348 19.28 41.8308 19.08C41.9268 18.88 42.0068 18.72 42.0708 18.6C42.1028 18.536 42.1308 18.484 42.1548 18.444C42.1788 18.396 42.1988 18.352 42.2148 18.312L42.2028 18.336C42.2108 18.32 42.2228 18.296 42.2388 18.264C42.2548 18.224 42.2668 18.196 42.2748 18.18C42.3628 18.004 42.4628 17.848 42.5748 17.712C42.6948 17.576 42.8148 17.468 42.9348 17.388C43.0628 17.308 43.1868 17.26 43.3068 17.244C43.4348 17.22 43.5468 17.236 43.6428 17.292V17.28C43.8588 17.4 43.9668 17.628 43.9668 17.964C43.9668 18.236 43.8868 18.54 43.7268 18.876H43.7148V18.9C43.6908 18.94 43.6588 18.996 43.6188 19.068C43.5788 19.14 43.5508 19.192 43.5348 19.224C43.5188 19.256 43.4988 19.292 43.4748 19.332C43.4588 19.364 43.4388 19.404 43.4148 19.452C43.3108 19.644 43.1668 19.908 42.9828 20.244C42.8068 20.58 42.5668 21.04 42.2628 21.624C41.9828 22.152 41.6508 22.792 41.2668 23.544C40.8828 24.288 40.4268 25.196 39.8988 26.268C39.5868 26.908 39.2468 27.604 38.8788 28.356C38.5028 29.108 38.0988 29.932 37.6668 30.828C37.8428 30.628 38.0268 30.428 38.2188 30.228C38.4028 30.036 38.6028 29.836 38.8188 29.628C39.4108 29.076 39.9788 28.592 40.5228 28.176C41.0588 27.768 41.5748 27.396 42.0708 27.06C42.5508 26.74 42.9948 26.452 43.4028 26.196C43.8188 25.948 44.2148 25.716 44.5908 25.5C44.9588 25.284 45.3188 25.076 45.6708 24.876C46.0228 24.684 46.3708 24.492 46.7148 24.3C47.0668 24.108 47.4268 23.916 47.7948 23.724C48.1628 23.524 48.5508 23.32 48.9588 23.112C50.0948 22.536 51.1108 22.032 52.0068 21.6C52.9028 21.168 53.7068 20.784 54.4188 20.448C54.4748 20.424 54.5348 20.396 54.5988 20.364C54.6628 20.332 54.7228 20.304 54.7788 20.28C54.8028 20.264 54.8308 20.252 54.8628 20.244C54.9028 20.228 54.9348 20.212 54.9588 20.196C54.9988 20.188 55.0628 20.156 55.1508 20.1C55.4148 19.972 55.6548 19.86 55.8708 19.764C56.0948 19.66 56.3108 19.556 56.5188 19.452C56.9268 19.26 57.2868 19.088 57.5988 18.936C57.9108 18.784 58.1908 18.648 58.4388 18.528C58.7108 18.392 58.9628 18.268 59.1948 18.156C59.4268 18.044 59.6188 17.948 59.7708 17.868C60.0188 17.748 60.2388 17.644 60.4308 17.556C60.6228 17.468 60.8348 17.372 61.0668 17.268C61.3868 17.132 61.6788 17.064 61.9428 17.064C62.3108 17.064 62.5508 17.184 62.6628 17.424V17.412ZM45.7548 9.048C45.3308 9.048 45.0388 9.004 44.8788 8.916C44.6308 8.812 44.5028 8.624 44.4948 8.352C44.4708 8.168 44.5108 8.004 44.6148 7.86C44.7188 7.716 44.8668 7.632 45.0588 7.608C45.1068 7.584 45.1588 7.56 45.2148 7.536C45.2788 7.512 45.3388 7.488 45.3948 7.464C45.4588 7.44 45.5268 7.416 45.5988 7.392C45.6148 7.416 45.6588 7.46 45.7308 7.524C45.8028 7.58 45.9268 7.624 46.1028 7.656C46.2708 7.688 46.4748 7.712 46.7148 7.728C46.9548 7.744 47.2468 7.752 47.5908 7.752C47.9188 7.752 48.3188 7.744 48.7908 7.728C49.2628 7.704 49.7868 7.664 50.3628 7.608C51.2748 7.52 51.9828 7.44 52.4868 7.368C52.9908 7.296 53.3508 7.228 53.5668 7.164C53.7028 7.132 53.7988 7.108 53.8548 7.092C53.9188 7.068 53.9708 7.048 54.0108 7.032H53.9988C54.0148 7.024 54.0268 7.02 54.0348 7.02C54.0428 7.02 54.0548 7.016 54.0708 7.008C54.1508 6.968 54.2188 6.948 54.2748 6.948C54.4428 6.932 54.5988 6.992 54.7428 7.128C54.8868 7.264 54.9708 7.444 54.9948 7.668C55.0188 7.9 54.9828 8.096 54.8868 8.256C54.7908 8.416 54.6588 8.512 54.4908 8.544H54.3948C54.3788 8.544 54.3588 8.544 54.3348 8.544C54.3188 8.536 54.3068 8.532 54.2988 8.532C54.2828 8.524 54.2428 8.516 54.1788 8.508C54.1228 8.492 54.0228 8.484 53.8788 8.484C53.6708 8.476 53.3028 8.492 52.7748 8.532C52.2468 8.572 51.4788 8.636 50.4708 8.724C49.8228 8.78 49.2468 8.828 48.7428 8.868C48.2388 8.908 47.7948 8.944 47.4108 8.976C47.0268 9 46.6988 9.02 46.4268 9.036C46.1628 9.044 45.9388 9.048 45.7548 9.048ZM61.1178 17.436C61.3178 17.276 61.5298 17.196 61.7538 17.196C61.8658 17.196 61.9738 17.22 62.0778 17.268C62.1898 17.316 62.2858 17.384 62.3658 17.472C62.4938 17.64 62.5338 17.84 62.4858 18.072C62.4458 18.296 62.3258 18.496 62.1258 18.672C62.1018 18.68 62.0818 18.692 62.0658 18.708C62.0498 18.724 62.0338 18.736 62.0178 18.744C62.0098 18.752 61.9978 18.76 61.9818 18.768C61.9418 18.792 61.8778 18.836 61.7898 18.9C61.7018 18.964 61.5778 19.06 61.4178 19.188L61.4298 19.176C61.2778 19.304 61.0898 19.472 60.8658 19.68C60.6498 19.88 60.3898 20.132 60.0858 20.436L60.0378 20.484H60.0498C59.9058 20.644 59.7498 20.824 59.5818 21.024C59.4218 21.216 59.2658 21.416 59.1138 21.624V21.612C58.9778 21.812 58.8338 22.04 58.6818 22.296C58.5298 22.544 58.3938 22.828 58.2738 23.148C58.4578 23.06 58.6538 22.952 58.8618 22.824C59.0698 22.696 59.2818 22.564 59.4978 22.428C59.9938 22.116 60.5098 21.772 61.0458 21.396C61.0618 21.38 61.0738 21.372 61.0818 21.372C61.0978 21.364 61.1138 21.352 61.1298 21.336C61.2498 21.24 61.3658 21.156 61.4778 21.084L61.6938 20.928C61.7098 20.912 61.7298 20.896 61.7538 20.88C61.7778 20.856 61.7978 20.836 61.8138 20.82L62.0418 20.796L62.5818 20.808L62.7738 20.952C62.7898 20.96 62.7978 20.968 62.7978 20.976C62.8058 20.984 62.8178 20.992 62.8338 21C62.8578 21.016 62.8938 21.04 62.9418 21.072C62.9978 21.096 63.1098 21.156 63.2778 21.252C63.4538 21.34 63.7178 21.476 64.0698 21.66C64.4298 21.836 64.9298 22.084 65.5698 22.404C65.7778 22.492 65.9978 22.58 66.2298 22.668C66.4618 22.748 66.7018 22.828 66.9498 22.908C67.1738 22.972 67.4378 23.036 67.7418 23.1C68.0458 23.164 68.3898 23.216 68.7738 23.256C68.8458 23.264 68.9298 23.268 69.0258 23.268C69.1218 23.268 69.2098 23.268 69.2898 23.268C69.4018 23.268 69.5338 23.264 69.6858 23.256C69.8378 23.248 69.9938 23.232 70.1538 23.208C70.4098 23.168 70.6898 23.104 70.9938 23.016C71.3058 22.928 71.6178 22.808 71.9298 22.656C72.6498 22.32 73.2778 21.976 73.8138 21.624C74.3578 21.272 74.8418 20.944 75.2658 20.64C75.6978 20.328 76.0778 20.036 76.4058 19.764C76.7418 19.492 77.0258 19.252 77.2578 19.044C77.5698 18.764 77.8378 18.508 78.0618 18.276C78.2938 18.044 78.4658 17.872 78.5778 17.76L78.6738 17.676C78.7698 17.58 78.8778 17.508 78.9978 17.46C79.1258 17.404 79.2498 17.376 79.3698 17.376C79.4578 17.376 79.5418 17.392 79.6218 17.424C79.7098 17.448 79.7898 17.492 79.8618 17.556C80.0218 17.692 80.1018 17.872 80.1018 18.096C80.1018 18.216 80.0738 18.34 80.0178 18.468C79.9618 18.596 79.8778 18.716 79.7658 18.828C79.7338 18.852 79.6978 18.884 79.6578 18.924C79.6178 18.956 79.5538 19.008 79.4658 19.08C79.3858 19.152 79.2778 19.244 79.1418 19.356C79.0058 19.468 78.8258 19.616 78.6018 19.8C78.3858 19.984 78.1018 20.212 77.7498 20.484C77.3978 20.748 76.9938 21.044 76.5378 21.372C76.3138 21.532 76.0498 21.708 75.7458 21.9C75.4498 22.092 75.1258 22.292 74.7738 22.5C74.4218 22.708 74.0458 22.92 73.6458 23.136C73.2538 23.344 72.8498 23.544 72.4338 23.736C72.0098 23.928 71.5858 24.08 71.1618 24.192C70.7378 24.304 70.3538 24.376 70.0098 24.408C69.8978 24.424 69.7698 24.432 69.6258 24.432C69.4898 24.44 69.3658 24.444 69.2538 24.444C69.0698 24.444 68.8818 24.436 68.6898 24.42C68.4978 24.412 68.3258 24.4 68.1738 24.384C67.7258 24.336 67.3018 24.268 66.9018 24.18C66.5018 24.1 66.1498 24.016 65.8458 23.928C65.5418 23.84 65.2498 23.748 64.9698 23.652C64.6898 23.556 64.3858 23.44 64.0578 23.304C63.8978 23.232 63.7258 23.152 63.5418 23.064C63.3658 22.976 63.1818 22.876 62.9898 22.764L63.0018 22.776C62.9858 22.768 62.9738 22.764 62.9658 22.764C62.9658 22.756 62.9578 22.748 62.9418 22.74C62.8538 22.692 62.7578 22.64 62.6538 22.584C62.5498 22.528 62.4498 22.468 62.3538 22.404C62.3138 22.38 62.2898 22.368 62.2818 22.368C62.2818 22.36 62.2578 22.34 62.2098 22.308C61.6498 22.66 61.1338 22.972 60.6618 23.244C60.1898 23.508 59.7658 23.736 59.3898 23.928C59.2218 24.016 59.0338 24.104 58.8258 24.192C58.6178 24.28 58.4058 24.356 58.1898 24.42C58.1098 24.444 58.0258 24.46 57.9378 24.468C57.8498 24.476 57.7578 24.48 57.6618 24.48C57.5578 24.464 57.4458 24.424 57.3258 24.36C57.2218 24.304 57.1378 24.228 57.0738 24.132C57.0098 24.044 56.9698 23.944 56.9538 23.832L56.9658 23.856C56.9498 23.76 56.9458 23.668 56.9538 23.58C56.9618 23.492 56.9738 23.4 56.9898 23.304L56.9778 23.316C56.9858 23.276 57.0018 23.22 57.0258 23.148C57.0418 23.068 57.0618 22.992 57.0858 22.92V22.932C57.2058 22.532 57.3498 22.184 57.5178 21.888C57.6778 21.584 57.8338 21.312 57.9858 21.072C58.1458 20.832 58.2978 20.616 58.4418 20.424C58.5858 20.224 58.7258 20.044 58.8618 19.884C59.0938 19.596 59.3058 19.34 59.4978 19.116C59.6898 18.892 59.8538 18.708 59.9898 18.564L60.0858 18.48C60.1418 18.424 60.1858 18.376 60.2178 18.336C60.2498 18.296 60.2858 18.256 60.3258 18.216C60.5098 18.024 60.6538 17.876 60.7578 17.772C60.8618 17.668 60.9818 17.556 61.1178 17.436ZM57.9138 23.28C57.9058 23.28 57.9018 23.284 57.9018 23.292C57.9018 23.292 57.8978 23.292 57.8898 23.292C57.9058 23.292 57.9138 23.288 57.9138 23.28ZM58.1538 23.472C58.1618 23.472 58.1658 23.464 58.1658 23.448C58.1658 23.464 58.1618 23.472 58.1538 23.472ZM97.2583 17.664C97.4583 17.552 97.6543 17.468 97.8463 17.412C98.0383 17.356 98.2103 17.328 98.3623 17.328C98.6583 17.328 98.8583 17.424 98.9623 17.616C99.0103 17.712 99.0223 17.824 98.9983 17.952C98.9823 18.072 98.9343 18.196 98.8543 18.324C98.7743 18.444 98.6663 18.568 98.5303 18.696C98.3943 18.816 98.2423 18.928 98.0743 19.032C98.0423 19.048 98.0103 19.068 97.9783 19.092C97.9463 19.116 97.9143 19.136 97.8823 19.152C97.8663 19.16 97.8463 19.168 97.8223 19.176C97.8063 19.184 97.7903 19.192 97.7743 19.2C97.7103 19.224 97.6383 19.256 97.5583 19.296C97.4863 19.336 97.3903 19.388 97.2703 19.452C97.1583 19.516 97.0183 19.596 96.8503 19.692C96.6903 19.788 96.4943 19.908 96.2623 20.052H96.2743C95.8903 20.292 95.4103 20.608 94.8343 21C94.2583 21.384 93.5743 21.888 92.7823 22.512H92.7943C92.4103 22.824 91.9823 23.188 91.5103 23.604C91.0383 24.012 90.5383 24.468 90.0103 24.972C89.4903 25.484 88.9463 26.04 88.3783 26.64C87.8183 27.24 87.2543 27.88 86.6863 28.56C86.0463 29.36 85.3983 30.256 84.7423 31.248C84.0863 32.24 83.4423 33.332 82.8103 34.524C82.1783 35.716 81.5703 37.008 80.9863 38.4C80.4023 39.792 79.8623 41.288 79.3663 42.888V42.876C79.3503 42.948 79.3303 43.004 79.3063 43.044C79.2903 43.092 79.2703 43.136 79.2463 43.176C79.2383 43.192 79.2223 43.216 79.1983 43.248C79.1743 43.288 79.1543 43.324 79.1383 43.356L78.9703 43.524L78.9463 43.5C78.9143 43.524 78.8823 43.544 78.8503 43.56C78.8263 43.584 78.8063 43.604 78.7903 43.62C78.7023 43.652 78.6063 43.672 78.5023 43.68C78.4063 43.688 78.3183 43.68 78.2383 43.656C78.1503 43.624 78.0703 43.584 77.9983 43.536C77.9263 43.488 77.8743 43.44 77.8423 43.392L77.8303 43.368C77.7503 43.288 77.7023 43.196 77.6863 43.092C77.6623 43.02 77.6503 42.976 77.6503 42.96C77.6423 42.936 77.6383 42.904 77.6383 42.864C77.6383 42.824 77.6383 42.792 77.6383 42.768V42.432C77.6383 42.416 77.6383 42.4 77.6383 42.384C77.6463 42.368 77.6503 42.352 77.6503 42.336C77.6663 42.2 77.6823 42.064 77.6982 41.928C77.7143 41.8 77.7303 41.676 77.7463 41.556C77.7863 41.348 77.8303 41.14 77.8783 40.932C77.9343 40.732 77.9823 40.54 78.0223 40.356L78.0103 40.368C78.0183 40.336 78.0223 40.308 78.0223 40.284C78.0303 40.26 78.0383 40.232 78.0463 40.2C78.1503 39.792 78.2503 39.408 78.3463 39.048C78.4503 38.696 78.5503 38.364 78.6463 38.052C78.8383 37.436 79.0183 36.86 79.1863 36.324C79.3623 35.788 79.5503 35.232 79.7503 34.656L79.9303 34.152C79.9623 34.064 79.9903 33.976 80.0143 33.888C80.0463 33.808 80.0783 33.724 80.1103 33.636C80.1743 33.46 80.2383 33.276 80.3023 33.084C80.3663 32.9 80.4343 32.704 80.5063 32.496C80.6903 31.968 80.9023 31.368 81.1423 30.696C81.3823 30.032 81.6463 29.288 81.9343 28.464C82.2303 27.648 82.5543 26.748 82.9062 25.764C83.2663 24.78 83.6583 23.708 84.0823 22.548C84.2343 22.132 84.3863 21.712 84.5383 21.288C84.6983 20.864 84.8503 20.46 84.9943 20.076C84.7223 20.276 84.4543 20.468 84.1903 20.652C83.9263 20.836 83.6703 21.012 83.4223 21.18C82.8943 21.532 82.3903 21.86 81.9103 22.164C81.4303 22.46 80.9663 22.732 80.5183 22.98C80.2943 23.1 80.0663 23.212 79.8343 23.316C79.6023 23.42 79.3783 23.516 79.1623 23.604C79.0423 23.652 78.9183 23.692 78.7903 23.724C78.6623 23.756 78.5303 23.784 78.3943 23.808H78.3103C78.2463 23.816 78.1783 23.824 78.1063 23.832C78.0423 23.832 77.9663 23.824 77.8783 23.808C77.7663 23.8 77.6503 23.768 77.5303 23.712C77.4183 23.656 77.3103 23.576 77.2063 23.472L77.1943 23.46C77.1383 23.42 77.0823 23.352 77.0263 23.256L76.9783 23.172C76.9783 23.172 76.9703 23.156 76.9543 23.124C76.9303 23.1 76.9143 23.072 76.9062 23.04C76.8902 22.992 76.8822 22.956 76.8822 22.932C76.8662 22.876 76.8502 22.828 76.8342 22.788C76.8182 22.748 76.8062 22.716 76.7982 22.692C76.7822 22.66 76.7742 22.636 76.7742 22.62C76.7582 22.5 76.7502 22.368 76.7502 22.224C76.7502 22.08 76.7582 21.952 76.7742 21.84C76.7902 21.656 76.8222 21.48 76.8702 21.312C76.9183 21.136 76.9623 20.972 77.0023 20.82C77.0663 20.604 77.1423 20.396 77.2303 20.196C77.3263 19.988 77.4103 19.804 77.4823 19.644C77.4903 19.628 77.4943 19.612 77.4943 19.596C77.5023 19.58 77.5103 19.564 77.5183 19.548L77.5063 19.62C77.5063 19.612 77.5063 19.608 77.5063 19.608C77.5143 19.6 77.5183 19.592 77.5183 19.584C77.5183 19.56 77.5183 19.536 77.5183 19.512C77.5183 19.488 77.5343 19.456 77.5663 19.416C77.7343 19.08 77.8703 18.82 77.9743 18.636C78.0863 18.444 78.1623 18.312 78.2023 18.24C78.3143 18.056 78.4383 17.896 78.5743 17.76C78.7103 17.624 78.8463 17.52 78.9823 17.448C79.1183 17.368 79.2503 17.324 79.3783 17.316C79.5063 17.3 79.6143 17.32 79.7023 17.376C79.7903 17.44 79.8503 17.52 79.8823 17.616C79.9223 17.704 79.9423 17.804 79.9423 17.916C79.9423 18.068 79.9063 18.244 79.8343 18.444C79.7703 18.644 79.6823 18.848 79.5703 19.056L79.5583 19.068V19.056C79.5503 19.072 79.5423 19.084 79.5343 19.092C79.5343 19.092 79.5303 19.1 79.5223 19.116C79.4983 19.156 79.4743 19.2 79.4503 19.248C79.4263 19.288 79.4063 19.324 79.3903 19.356C79.3263 19.444 79.2383 19.592 79.1263 19.8C79.0623 19.904 78.9943 20.024 78.9223 20.16C78.8503 20.288 78.7823 20.432 78.7183 20.592C78.6463 20.752 78.5663 20.944 78.4783 21.168C78.3983 21.384 78.3263 21.636 78.2623 21.924C78.2463 21.98 78.2343 22.04 78.2263 22.104C78.2263 22.16 78.2263 22.204 78.2263 22.236V22.38C78.2903 22.372 78.3583 22.364 78.4303 22.356C78.5023 22.34 78.5823 22.312 78.6702 22.272C79.1023 22.12 79.5583 21.916 80.0383 21.66C80.5263 21.396 81.0343 21.104 81.5623 20.784C81.8023 20.64 82.0743 20.472 82.3783 20.28C82.6823 20.08 82.9983 19.868 83.3263 19.644C83.6543 19.42 83.9903 19.188 84.3343 18.948C84.6783 18.708 85.0103 18.472 85.3303 18.24L85.4743 18.132C85.5143 18.1 85.5543 18.076 85.5943 18.06C85.6343 18.036 85.6743 18.008 85.7143 17.976C85.7223 17.976 85.7343 17.968 85.7503 17.952C85.7663 17.944 85.7783 17.936 85.7863 17.928C85.7943 17.912 85.8063 17.896 85.8223 17.88L85.9063 17.724L86.0023 17.748L86.0263 17.724L86.0983 17.676C86.1143 17.66 86.1343 17.644 86.1583 17.628C86.1823 17.604 86.2023 17.584 86.2183 17.568L86.3983 17.388C86.4383 17.428 86.5023 17.484 86.5903 17.556C86.6783 17.62 86.7343 17.66 86.7583 17.676C86.8303 17.74 86.8783 17.78 86.9023 17.796C86.9263 17.812 86.9263 17.812 86.9023 17.796H86.8783C86.9103 17.812 86.9463 17.836 86.9863 17.868C87.0263 17.9 87.0823 17.936 87.1543 17.976C87.1143 18.088 87.0703 18.2 87.0223 18.312C86.9743 18.424 86.9423 18.496 86.9263 18.528C86.9263 18.536 86.9223 18.544 86.9143 18.552C86.9143 18.56 86.9143 18.568 86.9143 18.576C86.9063 18.592 86.8983 18.616 86.8903 18.648C86.8823 18.672 86.8743 18.692 86.8663 18.708C86.8583 18.732 86.8463 18.76 86.8303 18.792C86.8143 18.824 86.8023 18.856 86.7943 18.888C86.7783 18.928 86.7623 18.968 86.7463 19.008C86.7383 19.04 86.7263 19.076 86.7103 19.116C86.6543 19.26 86.5983 19.408 86.5423 19.56C86.4863 19.704 86.4263 19.852 86.3623 20.004C86.1863 20.452 85.9983 20.932 85.7983 21.444C85.6063 21.948 85.4143 22.456 85.2223 22.968C84.5903 24.632 84.0383 26.104 83.5663 27.384C83.1023 28.664 82.6983 29.804 82.3543 30.804C82.0103 31.804 81.7143 32.684 81.4663 33.444C81.2183 34.212 80.9983 34.908 80.8063 35.532C80.8463 35.452 80.8863 35.372 80.9263 35.292C80.9663 35.212 81.0063 35.136 81.0463 35.064C81.3423 34.504 81.6263 33.984 81.8983 33.504C82.1703 33.024 82.4343 32.58 82.6903 32.172C82.9463 31.772 83.1943 31.388 83.4343 31.02C83.6743 30.652 83.9223 30.284 84.1783 29.916C84.4343 29.556 84.6983 29.188 84.9703 28.812C85.2503 28.444 85.5543 28.052 85.8823 27.636C86.9383 26.34 87.9223 25.244 88.8343 24.348C89.7463 23.46 90.5623 22.7 91.2823 22.068C92.0023 21.444 92.6263 20.932 93.1543 20.532C93.6823 20.124 94.1343 19.78 94.5103 19.5C94.8863 19.228 95.2023 19.004 95.4583 18.828C95.7143 18.652 95.9423 18.5 96.1423 18.372C96.3423 18.236 96.5263 18.116 96.6943 18.012C96.8623 17.9 97.0503 17.784 97.2583 17.664ZM139.624 17.16C139.736 17.2 139.824 17.276 139.888 17.388C139.952 17.492 139.984 17.612 139.984 17.748C139.984 17.892 139.944 18.044 139.864 18.204C139.8 18.324 139.7 18.452 139.564 18.588C139.436 18.724 139.28 18.852 139.096 18.972C139.064 18.988 139.032 19.008 139 19.032C138.976 19.048 138.952 19.064 138.928 19.08L138.94 19.068C138.908 19.084 138.868 19.108 138.82 19.14C138.772 19.172 138.724 19.2 138.676 19.224H138.664C138.648 19.232 138.636 19.24 138.628 19.248C138.62 19.248 138.608 19.252 138.592 19.26L138.52 19.296C138.392 19.36 138.216 19.44 137.992 19.536C137.776 19.624 137.496 19.736 137.152 19.872C136.72 20.024 136.172 20.2 135.508 20.4C134.852 20.6 134.02 20.812 133.012 21.036L133.024 21.024C132.768 21.088 132.5 21.152 132.22 21.216C131.94 21.272 131.648 21.332 131.344 21.396C131.224 21.42 131.1 21.444 130.972 21.468C130.852 21.492 130.728 21.516 130.6 21.54C130.416 21.58 130.228 21.62 130.036 21.66C129.844 21.7 129.648 21.74 129.448 21.78L129.46 21.768C129.388 21.784 129.312 21.804 129.232 21.828C129.152 21.844 129.072 21.86 128.992 21.876C128.808 21.916 128.632 21.956 128.464 21.996C128.304 22.028 128.14 22.064 127.972 22.104C127.812 22.136 127.64 22.176 127.456 22.224C127.28 22.264 127.088 22.312 126.88 22.368C126.936 22.704 126.96 23.068 126.952 23.46C126.944 23.716 126.904 23.976 126.832 24.24C126.768 24.504 126.672 24.764 126.544 25.02C126.296 25.516 125.912 25.98 125.392 26.412C124.88 26.844 124.284 27.184 123.604 27.432C123.156 27.576 122.712 27.68 122.272 27.744C121.84 27.808 121.432 27.832 121.048 27.816C120.624 27.808 120.224 27.764 119.848 27.684C119.48 27.604 119.144 27.48 118.84 27.312C118.656 27.2 118.484 27.06 118.324 26.892C118.172 26.732 118.064 26.528 118 26.28C117.944 26.04 117.948 25.812 118.012 25.596C118.076 25.388 118.164 25.204 118.276 25.044C118.476 24.772 118.684 24.548 118.9 24.372C119.116 24.196 119.328 24.036 119.536 23.892C119.936 23.636 120.336 23.416 120.736 23.232C121.144 23.048 121.56 22.868 121.984 22.692C122.744 22.38 123.62 22.072 124.612 21.768L125.164 21.612C125.084 21.404 125 21.2 124.912 21C124.824 20.792 124.744 20.608 124.672 20.448V20.46C124.416 19.948 124.144 19.46 123.856 18.996C123.576 18.524 123.28 18.044 122.968 17.556C122.736 17.204 122.484 16.84 122.212 16.464C121.948 16.08 121.644 15.648 121.3 15.168C121.02 14.784 120.72 14.364 120.4 13.908C120.384 13.892 120.368 13.876 120.352 13.86C120.336 13.836 120.32 13.804 120.304 13.764V13.752C120.04 13.384 119.752 12.972 119.44 12.516C119.136 12.052 118.824 11.54 118.504 10.98C118.336 10.692 118.168 10.368 118 10.008C117.832 9.64 117.696 9.26 117.592 8.868V8.88C117.528 8.664 117.484 8.428 117.46 8.172C117.428 7.908 117.424 7.66 117.448 7.428C117.472 7.164 117.552 6.9 117.688 6.636C117.824 6.372 117.996 6.136 118.204 5.928C118.436 5.72 118.668 5.556 118.9 5.436C119.132 5.308 119.356 5.204 119.572 5.124C119.804 5.044 120.036 4.98 120.268 4.932C120.5 4.876 120.716 4.828 120.916 4.788C121.332 4.724 121.744 4.684 122.152 4.668C122.56 4.644 122.968 4.632 123.376 4.632C124.16 4.632 124.9 4.656 125.596 4.704C126.292 4.752 126.948 4.836 127.564 4.956C127.852 5.02 128.148 5.096 128.452 5.184C128.764 5.264 129.068 5.372 129.364 5.508C129.652 5.636 129.932 5.788 130.204 5.964C130.476 6.132 130.704 6.312 130.888 6.504C131.096 6.736 131.264 6.992 131.392 7.272C131.528 7.544 131.62 7.82 131.668 8.1C131.692 8.26 131.704 8.436 131.704 8.628C131.704 8.948 131.66 9.264 131.572 9.576C131.46 9.968 131.324 10.332 131.164 10.668C131.004 10.996 130.852 11.276 130.708 11.508C130.564 11.74 130.416 11.96 130.264 12.168C130.12 12.376 129.996 12.548 129.892 12.684C129.66 12.972 129.472 13.2 129.328 13.368C129.184 13.536 129.08 13.652 129.016 13.716C128.872 13.876 128.716 14.004 128.548 14.1C128.388 14.196 128.232 14.264 128.08 14.304C127.928 14.344 127.784 14.356 127.648 14.34C127.52 14.316 127.42 14.26 127.348 14.172C127.276 14.092 127.236 13.992 127.228 13.872C127.228 13.752 127.248 13.624 127.288 13.488C127.336 13.344 127.404 13.2 127.492 13.056C127.588 12.904 127.7 12.76 127.828 12.624L128.044 12.42C128.068 12.396 128.092 12.372 128.116 12.348C128.14 12.324 128.168 12.292 128.2 12.252C128.232 12.212 128.264 12.172 128.296 12.132C128.336 12.092 128.384 12.044 128.44 11.988H128.428C128.508 11.9 128.592 11.804 128.68 11.7C128.776 11.596 128.888 11.468 129.016 11.316L129.004 11.328C129.116 11.176 129.24 11.004 129.376 10.812C129.512 10.62 129.648 10.4 129.784 10.152C129.848 10.016 129.912 9.876 129.976 9.732C130.04 9.588 130.1 9.44 130.156 9.288C130.196 9.152 130.228 9 130.252 8.832C130.276 8.656 130.28 8.48 130.264 8.304C130.232 8.144 130.176 7.984 130.096 7.824C130.024 7.656 129.92 7.504 129.784 7.368C129.632 7.216 129.444 7.076 129.22 6.948C128.996 6.82 128.748 6.708 128.476 6.612C127.908 6.404 127.264 6.248 126.544 6.144C125.824 6.032 125.064 5.956 124.264 5.916C124.104 5.908 123.912 5.904 123.688 5.904C123.472 5.896 123.28 5.892 123.112 5.892C122.88 5.892 122.636 5.896 122.38 5.904C122.124 5.912 121.868 5.928 121.612 5.952C121.372 5.976 121.128 6.008 120.88 6.048C120.64 6.08 120.416 6.128 120.208 6.192C120 6.248 119.792 6.324 119.584 6.42C119.376 6.516 119.188 6.644 119.02 6.804C118.884 6.924 118.784 7.068 118.72 7.236C118.656 7.396 118.62 7.56 118.612 7.728C118.596 7.928 118.608 8.124 118.648 8.316C118.696 8.508 118.748 8.696 118.804 8.88V8.868C118.948 9.284 119.108 9.664 119.284 10.008C119.468 10.344 119.652 10.664 119.836 10.968C120.204 11.568 120.548 12.096 120.868 12.552C121.188 13 121.492 13.424 121.78 13.824C121.764 13.808 121.776 13.824 121.816 13.872C121.856 13.912 121.9 13.964 121.948 14.028C121.964 14.044 121.976 14.06 121.984 14.076C121.992 14.092 122.004 14.108 122.02 14.124L122.008 14.112C122.184 14.352 122.352 14.58 122.512 14.796C122.576 14.884 122.64 14.976 122.704 15.072C122.768 15.16 122.832 15.244 122.896 15.324C123.32 15.9 123.712 16.432 124.072 16.92C124.432 17.408 124.744 17.868 125.008 18.3C125.184 18.556 125.364 18.84 125.548 19.152C125.732 19.456 125.892 19.752 126.028 20.04C126.116 20.216 126.204 20.404 126.292 20.604C126.388 20.796 126.476 21.004 126.556 21.228C127.412 20.996 128.208 20.792 128.944 20.616C129.688 20.44 130.364 20.284 130.972 20.148L130.96 20.16C131.024 20.144 131.092 20.128 131.164 20.112C131.236 20.096 131.304 20.08 131.368 20.064C131.456 20.048 131.54 20.032 131.62 20.016C131.708 19.992 131.796 19.972 131.884 19.956L131.872 19.968C132.672 19.784 133.384 19.6 134.008 19.416C134.632 19.224 135.168 19.048 135.616 18.888C135.976 18.752 136.304 18.624 136.6 18.504C136.896 18.376 137.124 18.268 137.284 18.18C137.484 18.084 137.656 17.996 137.8 17.916C137.952 17.828 138.108 17.728 138.268 17.616C138.38 17.544 138.492 17.476 138.604 17.412C138.716 17.34 138.812 17.284 138.892 17.244C139.036 17.18 139.16 17.136 139.264 17.112C139.376 17.088 139.496 17.104 139.624 17.16ZM125.212 24.42C125.324 24.236 125.396 24.044 125.428 23.844C125.468 23.644 125.488 23.444 125.488 23.244C125.488 23.156 125.484 23.072 125.476 22.992C125.476 22.912 125.468 22.828 125.452 22.74C125.38 22.764 125.304 22.788 125.224 22.812C125.144 22.836 125.06 22.864 124.972 22.896C124.948 22.904 124.908 22.92 124.852 22.944C124.796 22.96 124.752 22.972 124.72 22.98L124.744 22.968C124.264 23.104 123.768 23.268 123.256 23.46C122.752 23.644 122.248 23.848 121.744 24.072H121.756C121.524 24.184 121.28 24.304 121.024 24.432C120.768 24.568 120.512 24.724 120.256 24.9C120.144 24.972 120.036 25.048 119.932 25.128C119.828 25.208 119.72 25.304 119.608 25.416C119.52 25.496 119.44 25.576 119.368 25.656C119.296 25.744 119.252 25.82 119.236 25.884L119.248 25.872C119.232 25.944 119.284 26.028 119.404 26.124C119.46 26.172 119.544 26.216 119.656 26.256C119.768 26.296 119.88 26.332 119.992 26.364C120.152 26.404 120.324 26.432 120.508 26.448C120.692 26.464 120.876 26.472 121.06 26.472C121.188 26.472 121.32 26.464 121.456 26.448C121.6 26.44 121.744 26.428 121.888 26.412C122.208 26.372 122.528 26.3 122.848 26.196C123.176 26.092 123.496 25.96 123.808 25.8H123.796C124.084 25.64 124.348 25.448 124.588 25.224C124.836 25 125.04 24.736 125.2 24.432L125.212 24.42ZM125.404 21.54C125.396 21.54 125.388 21.544 125.38 21.552C125.38 21.552 125.376 21.552 125.368 21.552L125.416 21.54H125.404ZM138.508 17.436C138.708 17.276 138.92 17.196 139.144 17.196C139.256 17.196 139.364 17.22 139.468 17.268C139.58 17.316 139.676 17.384 139.756 17.472C139.884 17.64 139.924 17.84 139.876 18.072C139.836 18.296 139.716 18.496 139.516 18.672C139.492 18.68 139.472 18.692 139.456 18.708C139.44 18.724 139.424 18.736 139.408 18.744C139.4 18.752 139.388 18.76 139.372 18.768C139.332 18.792 139.268 18.836 139.18 18.9C139.092 18.964 138.968 19.06 138.808 19.188L138.82 19.176C138.668 19.304 138.48 19.472 138.256 19.68C138.04 19.88 137.78 20.132 137.476 20.436L137.428 20.484H137.44C137.296 20.644 137.14 20.824 136.972 21.024C136.812 21.216 136.656 21.416 136.504 21.624V21.612C136.368 21.812 136.224 22.04 136.072 22.296C135.92 22.544 135.784 22.828 135.664 23.148C135.848 23.06 136.044 22.952 136.252 22.824C136.46 22.696 136.672 22.564 136.888 22.428C137.384 22.116 137.9 21.772 138.436 21.396C138.452 21.38 138.464 21.372 138.472 21.372C138.488 21.364 138.504 21.352 138.52 21.336C138.64 21.24 138.756 21.156 138.868 21.084L139.084 20.928C139.1 20.912 139.12 20.896 139.144 20.88C139.168 20.856 139.188 20.836 139.204 20.82L139.432 20.796L139.972 20.808L140.164 20.952C140.18 20.96 140.188 20.968 140.188 20.976C140.196 20.984 140.208 20.992 140.224 21C140.248 21.016 140.284 21.04 140.332 21.072C140.388 21.096 140.5 21.156 140.668 21.252C140.844 21.34 141.108 21.476 141.46 21.66C141.82 21.836 142.32 22.084 142.96 22.404C143.168 22.492 143.388 22.58 143.62 22.668C143.852 22.748 144.092 22.828 144.34 22.908C144.564 22.972 144.828 23.036 145.132 23.1C145.436 23.164 145.78 23.216 146.164 23.256C146.236 23.264 146.32 23.268 146.416 23.268C146.512 23.268 146.6 23.268 146.68 23.268C146.792 23.268 146.924 23.264 147.076 23.256C147.228 23.248 147.384 23.232 147.544 23.208C147.8 23.168 148.08 23.104 148.384 23.016C148.696 22.928 149.008 22.808 149.32 22.656C150.04 22.32 150.668 21.976 151.204 21.624C151.748 21.272 152.232 20.944 152.656 20.64C153.088 20.328 153.468 20.036 153.796 19.764C154.132 19.492 154.416 19.252 154.648 19.044C154.96 18.764 155.228 18.508 155.452 18.276C155.684 18.044 155.856 17.872 155.968 17.76L156.064 17.676C156.16 17.58 156.268 17.508 156.388 17.46C156.516 17.404 156.64 17.376 156.76 17.376C156.848 17.376 156.932 17.392 157.012 17.424C157.1 17.448 157.18 17.492 157.252 17.556C157.412 17.692 157.492 17.872 157.492 18.096C157.492 18.216 157.464 18.34 157.408 18.468C157.352 18.596 157.268 18.716 157.156 18.828C157.124 18.852 157.088 18.884 157.048 18.924C157.008 18.956 156.944 19.008 156.856 19.08C156.776 19.152 156.668 19.244 156.532 19.356C156.396 19.468 156.216 19.616 155.992 19.8C155.776 19.984 155.492 20.212 155.14 20.484C154.788 20.748 154.384 21.044 153.928 21.372C153.704 21.532 153.44 21.708 153.136 21.9C152.84 22.092 152.516 22.292 152.164 22.5C151.812 22.708 151.436 22.92 151.036 23.136C150.644 23.344 150.24 23.544 149.824 23.736C149.4 23.928 148.976 24.08 148.552 24.192C148.128 24.304 147.744 24.376 147.4 24.408C147.288 24.424 147.16 24.432 147.016 24.432C146.88 24.44 146.756 24.444 146.644 24.444C146.46 24.444 146.272 24.436 146.08 24.42C145.888 24.412 145.716 24.4 145.564 24.384C145.116 24.336 144.692 24.268 144.292 24.18C143.892 24.1 143.54 24.016 143.236 23.928C142.932 23.84 142.64 23.748 142.36 23.652C142.08 23.556 141.776 23.44 141.448 23.304C141.288 23.232 141.116 23.152 140.932 23.064C140.756 22.976 140.572 22.876 140.38 22.764L140.392 22.776C140.376 22.768 140.364 22.764 140.356 22.764C140.356 22.756 140.348 22.748 140.332 22.74C140.244 22.692 140.148 22.64 140.044 22.584C139.94 22.528 139.84 22.468 139.744 22.404C139.704 22.38 139.68 22.368 139.672 22.368C139.672 22.36 139.648 22.34 139.6 22.308C139.04 22.66 138.524 22.972 138.052 23.244C137.58 23.508 137.156 23.736 136.78 23.928C136.612 24.016 136.424 24.104 136.216 24.192C136.008 24.28 135.796 24.356 135.58 24.42C135.5 24.444 135.416 24.46 135.328 24.468C135.24 24.476 135.148 24.48 135.052 24.48C134.948 24.464 134.836 24.424 134.716 24.36C134.612 24.304 134.528 24.228 134.464 24.132C134.4 24.044 134.36 23.944 134.344 23.832L134.356 23.856C134.34 23.76 134.336 23.668 134.344 23.58C134.352 23.492 134.364 23.4 134.38 23.304L134.368 23.316C134.376 23.276 134.392 23.22 134.416 23.148C134.432 23.068 134.452 22.992 134.476 22.92V22.932C134.596 22.532 134.74 22.184 134.908 21.888C135.068 21.584 135.224 21.312 135.376 21.072C135.536 20.832 135.688 20.616 135.832 20.424C135.976 20.224 136.116 20.044 136.252 19.884C136.484 19.596 136.696 19.34 136.888 19.116C137.08 18.892 137.244 18.708 137.38 18.564L137.476 18.48C137.532 18.424 137.576 18.376 137.608 18.336C137.64 18.296 137.676 18.256 137.716 18.216C137.9 18.024 138.044 17.876 138.148 17.772C138.252 17.668 138.372 17.556 138.508 17.436ZM135.304 23.28C135.296 23.28 135.292 23.284 135.292 23.292C135.292 23.292 135.288 23.292 135.28 23.292C135.296 23.292 135.304 23.288 135.304 23.28ZM135.544 23.472C135.552 23.472 135.556 23.464 135.556 23.448C135.556 23.464 135.552 23.472 135.544 23.472ZM179.617 17.556C179.713 17.764 179.705 17.976 179.593 18.192C179.481 18.4 179.317 18.56 179.101 18.672C179.053 18.696 178.977 18.716 178.873 18.732C178.865 18.732 178.861 18.736 178.861 18.744C178.861 18.744 178.857 18.744 178.849 18.744C178.825 18.752 178.785 18.764 178.729 18.78C178.681 18.788 178.609 18.808 178.513 18.84C178.425 18.872 178.305 18.916 178.153 18.972C178.009 19.028 177.825 19.096 177.601 19.176C177.249 19.304 176.801 19.472 176.257 19.68C175.721 19.88 175.041 20.132 174.217 20.436C173.393 20.74 172.417 21.096 171.289 21.504C170.161 21.904 168.825 22.34 167.281 22.812C165.713 23.284 164.277 23.656 162.973 23.928C161.669 24.192 160.469 24.336 159.373 24.36C158.813 24.368 158.277 24.328 157.765 24.24C157.253 24.16 156.781 24 156.349 23.76C155.885 23.488 155.533 23.152 155.293 22.752C155.181 22.552 155.089 22.344 155.017 22.128C154.953 21.912 154.913 21.72 154.897 21.552C154.873 21.192 154.885 20.864 154.933 20.568C154.989 20.272 155.045 20.004 155.101 19.764C155.189 19.484 155.257 19.264 155.305 19.104C155.361 18.936 155.413 18.796 155.461 18.684C155.549 18.468 155.633 18.28 155.713 18.12C155.801 17.952 155.865 17.836 155.905 17.772C155.969 17.668 156.049 17.58 156.145 17.508C156.241 17.436 156.341 17.384 156.445 17.352C156.549 17.32 156.653 17.312 156.757 17.328C156.869 17.344 156.973 17.38 157.069 17.436C157.229 17.556 157.333 17.72 157.381 17.928C157.429 18.136 157.405 18.332 157.309 18.516V18.504C157.269 18.6 157.245 18.652 157.237 18.66C157.229 18.668 157.221 18.68 157.213 18.696C157.189 18.736 157.157 18.784 157.117 18.84C157.077 18.896 157.029 18.968 156.973 19.056C156.933 19.112 156.889 19.188 156.841 19.284C156.793 19.38 156.737 19.496 156.673 19.632V19.62C156.609 19.764 156.541 19.924 156.469 20.1C156.405 20.276 156.349 20.472 156.301 20.688H156.313C156.289 20.8 156.269 20.916 156.253 21.036C156.237 21.156 156.229 21.28 156.229 21.408C156.237 21.536 156.253 21.664 156.277 21.792C156.301 21.912 156.345 22.024 156.409 22.128C156.473 22.24 156.565 22.352 156.685 22.464C156.805 22.568 156.945 22.664 157.105 22.752C157.473 22.936 157.893 23.052 158.365 23.1C158.709 23.148 159.065 23.172 159.433 23.172C159.809 23.172 160.225 23.148 160.681 23.1C161.137 23.052 161.605 22.992 162.085 22.92C162.429 22.864 162.797 22.796 163.189 22.716C163.589 22.628 163.997 22.532 164.413 22.428C164.837 22.324 165.261 22.216 165.685 22.104C166.117 21.984 166.537 21.864 166.945 21.744C167.577 21.552 168.197 21.352 168.805 21.144C169.421 20.936 170.005 20.732 170.557 20.532C171.117 20.332 171.633 20.144 172.105 19.968C172.585 19.784 173.005 19.62 173.365 19.476C174.069 19.196 174.697 18.94 175.249 18.708C175.801 18.468 176.237 18.276 176.557 18.132H176.545C176.945 17.948 177.249 17.804 177.457 17.7C177.665 17.588 177.833 17.5 177.961 17.436C178.057 17.388 178.145 17.348 178.225 17.316C178.305 17.276 178.393 17.236 178.489 17.196C178.721 17.108 178.945 17.1 179.161 17.172C179.377 17.244 179.529 17.372 179.617 17.556ZM161.101 11.724C161.029 11.732 160.957 11.74 160.885 11.748C160.813 11.756 160.745 11.764 160.681 11.772C160.633 11.78 160.585 11.788 160.537 11.796C160.489 11.796 160.445 11.8 160.405 11.808C159.957 11.864 159.581 11.908 159.277 11.94C158.973 11.964 158.717 11.976 158.509 11.976C158.125 11.976 157.857 11.916 157.705 11.796C157.561 11.676 157.481 11.488 157.465 11.232C157.449 11 157.501 10.804 157.621 10.644C157.741 10.484 157.881 10.404 158.041 10.404C158.057 10.404 158.077 10.404 158.101 10.404C158.133 10.404 158.173 10.412 158.221 10.428L158.209 10.416C158.265 10.432 158.377 10.448 158.545 10.464C158.713 10.48 159.005 10.488 159.421 10.488C159.765 10.488 160.201 10.48 160.729 10.464C161.257 10.448 161.921 10.416 162.721 10.368C163.337 10.328 163.841 10.292 164.233 10.26C164.633 10.22 164.953 10.184 165.193 10.152C165.433 10.112 165.609 10.08 165.721 10.056C165.833 10.024 165.917 9.996 165.973 9.972C166.013 9.956 166.045 9.948 166.069 9.948C166.101 9.94 166.137 9.932 166.177 9.924C166.257 9.892 166.345 9.868 166.441 9.852C166.537 9.828 166.625 9.828 166.705 9.852C166.793 9.876 166.865 9.932 166.921 10.02C166.985 10.1 167.025 10.232 167.041 10.416C167.049 10.616 167.001 10.776 166.897 10.896C166.801 11.008 166.645 11.1 166.429 11.172C166.221 11.244 165.957 11.296 165.637 11.328C165.317 11.36 164.941 11.392 164.509 11.424H164.521C164.473 11.432 164.421 11.436 164.365 11.436C164.309 11.436 164.253 11.44 164.197 11.448C163.789 11.48 163.325 11.516 162.805 11.556C162.293 11.596 161.725 11.652 161.101 11.724ZM202.547 17.196C202.787 17.1 203.015 17.088 203.231 17.16C203.455 17.232 203.615 17.368 203.711 17.568C203.759 17.672 203.775 17.78 203.759 17.892C203.751 18.004 203.719 18.112 203.663 18.216C203.607 18.32 203.531 18.416 203.435 18.504C203.339 18.584 203.227 18.648 203.099 18.696C203.075 18.712 203.043 18.724 203.003 18.732C202.971 18.732 202.939 18.74 202.907 18.756C202.867 18.772 202.827 18.784 202.787 18.792C202.723 18.808 202.639 18.828 202.535 18.852C202.431 18.868 202.299 18.904 202.139 18.96C201.907 19.024 201.623 19.104 201.287 19.2C200.951 19.288 200.543 19.376 200.063 19.464H200.075C199.843 19.504 199.575 19.544 199.271 19.584C198.975 19.616 198.635 19.64 198.251 19.656C198.219 19.656 198.187 19.66 198.155 19.668C198.131 19.668 198.103 19.668 198.071 19.668H197.891C197.755 19.668 197.615 19.664 197.471 19.656C197.327 19.648 197.191 19.636 197.063 19.62C196.943 19.62 196.795 19.6 196.619 19.56C196.611 19.56 196.603 19.564 196.595 19.572C196.571 19.588 196.543 19.608 196.511 19.632C196.487 19.656 196.463 19.676 196.439 19.692L196.319 19.764C196.207 19.828 196.099 19.896 195.995 19.968C195.899 20.04 195.795 20.116 195.683 20.196V20.184L195.323 20.436C195.043 20.62 194.755 20.812 194.459 21.012C194.163 21.212 193.847 21.416 193.511 21.624C193.255 21.784 192.967 21.96 192.647 22.152C192.335 22.336 192.015 22.512 191.687 22.68C191.511 22.768 191.331 22.856 191.147 22.944C190.963 23.024 190.783 23.1 190.607 23.172C190.407 23.244 190.203 23.312 189.995 23.376C189.787 23.44 189.547 23.492 189.275 23.532C189.187 23.54 189.091 23.544 188.987 23.544C188.891 23.544 188.799 23.536 188.711 23.52C188.599 23.512 188.499 23.492 188.411 23.46C188.323 23.428 188.235 23.392 188.147 23.352C187.987 23.272 187.843 23.18 187.715 23.076C187.595 22.972 187.487 22.86 187.391 22.74C187.231 22.532 187.107 22.332 187.019 22.14C186.931 21.94 186.863 21.76 186.815 21.6C186.679 21.136 186.591 20.672 186.551 20.208C186.247 20.512 185.895 20.852 185.495 21.228C185.103 21.596 184.647 22.012 184.127 22.476C183.791 22.756 183.463 23.028 183.143 23.292C182.831 23.548 182.503 23.784 182.159 24C182.055 24.064 181.955 24.12 181.859 24.168C181.771 24.216 181.687 24.26 181.607 24.3C181.479 24.348 181.347 24.388 181.211 24.42C181.083 24.46 180.911 24.468 180.695 24.444C180.511 24.404 180.363 24.336 180.251 24.24C180.139 24.152 180.039 24.06 179.951 23.964C179.855 23.852 179.783 23.764 179.735 23.7C179.687 23.636 179.643 23.572 179.603 23.508C179.459 23.228 179.331 22.956 179.219 22.692C179.115 22.428 179.019 22.168 178.931 21.912V21.924C178.867 21.74 178.807 21.556 178.751 21.372C178.695 21.188 178.647 21.016 178.607 20.856C178.599 20.824 178.591 20.796 178.583 20.772C178.575 20.74 178.567 20.708 178.559 20.676L178.571 20.688C178.427 20.152 178.307 19.704 178.211 19.344C178.123 18.984 178.067 18.748 178.043 18.636L178.055 18.648C178.031 18.616 178.019 18.576 178.019 18.528C178.003 18.4 178.007 18.276 178.031 18.156C178.055 18.036 178.091 17.924 178.139 17.82C178.195 17.716 178.263 17.632 178.343 17.568C178.431 17.496 178.527 17.448 178.631 17.424C178.855 17.384 179.059 17.452 179.243 17.628C179.427 17.796 179.547 18.008 179.603 18.264C179.611 18.28 179.615 18.304 179.615 18.336C179.623 18.368 179.635 18.436 179.651 18.54C179.659 18.636 179.679 18.776 179.711 18.96C179.743 19.144 179.791 19.424 179.855 19.8C179.855 19.824 179.859 19.84 179.867 19.848C179.867 19.864 179.875 19.88 179.891 19.896C179.907 19.952 179.919 20.016 179.927 20.088C179.935 20.152 179.947 20.216 179.963 20.28C179.979 20.368 179.995 20.46 180.011 20.556C180.027 20.652 180.051 20.756 180.083 20.868C180.123 21.044 180.179 21.252 180.251 21.492C180.323 21.732 180.415 22.004 180.527 22.308L180.539 22.32C180.595 22.464 180.651 22.604 180.707 22.74C180.771 22.868 180.839 22.976 180.911 23.064C180.959 23.128 180.979 23.16 180.971 23.16C180.987 23.168 181.015 23.164 181.055 23.148C181.103 23.132 181.151 23.112 181.199 23.088H181.187C181.339 23.008 181.503 22.912 181.679 22.8C181.863 22.68 182.051 22.552 182.243 22.416C182.435 22.28 182.623 22.14 182.807 21.996C182.999 21.852 183.179 21.712 183.347 21.576C184.059 20.976 184.671 20.424 185.183 19.92C185.703 19.416 186.143 18.98 186.503 18.612L186.467 18.648C186.483 18.632 186.515 18.596 186.563 18.54C186.611 18.476 186.643 18.432 186.659 18.408C186.635 18.416 186.615 18.416 186.599 18.408C186.567 18.408 186.551 18.392 186.551 18.36L186.719 18.372L187.067 18.024C187.251 18.072 187.391 18.132 187.487 18.204C187.591 18.276 187.663 18.356 187.703 18.444C187.743 18.532 187.763 18.628 187.763 18.732C187.763 18.828 187.759 18.924 187.751 19.02C187.751 19.1 187.751 19.18 187.751 19.26C187.759 19.332 187.767 19.404 187.775 19.476C187.791 19.652 187.811 19.82 187.835 19.98C187.867 20.132 187.895 20.288 187.919 20.448C187.951 20.568 187.983 20.696 188.015 20.832C188.055 20.968 188.103 21.104 188.159 21.24L188.147 21.228C188.195 21.34 188.251 21.452 188.315 21.564C188.379 21.668 188.455 21.772 188.543 21.876C188.607 21.94 188.683 21.996 188.771 22.044C188.859 22.084 188.967 22.096 189.095 22.08C189.279 22.064 189.487 22.02 189.719 21.948C189.959 21.876 190.211 21.788 190.475 21.684C190.819 21.548 191.139 21.412 191.435 21.276C191.731 21.132 191.999 21 192.239 20.88C192.271 20.864 192.307 20.848 192.347 20.832C192.563 20.72 192.775 20.604 192.983 20.484C193.199 20.364 193.391 20.252 193.559 20.148C193.575 20.14 193.595 20.124 193.619 20.1C193.627 20.092 193.635 20.088 193.643 20.088L193.631 20.1C193.863 19.956 194.091 19.812 194.315 19.668C194.539 19.524 194.763 19.376 194.987 19.224V19.188C194.987 19.18 195.027 19.152 195.107 19.104C195.187 19.048 195.299 18.98 195.443 18.9C195.595 18.82 195.775 18.732 195.983 18.636C196.191 18.54 196.427 18.44 196.691 18.336C196.787 18.352 196.871 18.368 196.943 18.384C197.023 18.392 197.087 18.4 197.135 18.408C197.263 18.424 197.411 18.436 197.579 18.444C197.747 18.444 197.887 18.44 197.999 18.432C198.231 18.416 198.475 18.392 198.731 18.36C198.987 18.32 199.219 18.28 199.427 18.24C199.779 18.16 200.115 18.076 200.435 17.988C200.755 17.9 200.999 17.824 201.167 17.76C201.223 17.736 201.279 17.712 201.335 17.688C201.399 17.664 201.451 17.644 201.491 17.628C201.627 17.58 201.743 17.54 201.839 17.508C201.943 17.468 202.031 17.428 202.103 17.388C202.175 17.364 202.219 17.344 202.235 17.328C202.275 17.312 202.311 17.296 202.343 17.28C202.375 17.264 202.447 17.236 202.559 17.196H202.547ZM202.352 17.436C202.552 17.276 202.764 17.196 202.988 17.196C203.1 17.196 203.208 17.22 203.312 17.268C203.424 17.316 203.52 17.384 203.6 17.472C203.728 17.64 203.768 17.84 203.72 18.072C203.68 18.296 203.56 18.496 203.36 18.672C203.336 18.68 203.316 18.692 203.3 18.708C203.284 18.724 203.268 18.736 203.252 18.744C203.244 18.752 203.232 18.76 203.216 18.768C203.176 18.792 203.112 18.836 203.024 18.9C202.936 18.964 202.812 19.06 202.652 19.188L202.664 19.176C202.512 19.304 202.324 19.472 202.1 19.68C201.884 19.88 201.624 20.132 201.32 20.436L201.272 20.484H201.284C201.14 20.644 200.984 20.824 200.816 21.024C200.656 21.216 200.5 21.416 200.348 21.624V21.612C200.212 21.812 200.068 22.04 199.916 22.296C199.764 22.544 199.628 22.828 199.508 23.148C199.692 23.06 199.888 22.952 200.096 22.824C200.304 22.696 200.516 22.564 200.732 22.428C201.228 22.116 201.744 21.772 202.28 21.396C202.296 21.38 202.308 21.372 202.316 21.372C202.332 21.364 202.348 21.352 202.364 21.336C202.484 21.24 202.6 21.156 202.712 21.084L202.928 20.928C202.944 20.912 202.964 20.896 202.988 20.88C203.012 20.856 203.032 20.836 203.048 20.82L203.276 20.796L203.816 20.808L204.008 20.952C204.024 20.96 204.032 20.968 204.032 20.976C204.04 20.984 204.052 20.992 204.068 21C204.092 21.016 204.128 21.04 204.176 21.072C204.232 21.096 204.344 21.156 204.512 21.252C204.688 21.34 204.952 21.476 205.304 21.66C205.664 21.836 206.164 22.084 206.804 22.404C207.012 22.492 207.232 22.58 207.464 22.668C207.696 22.748 207.936 22.828 208.184 22.908C208.408 22.972 208.672 23.036 208.976 23.1C209.28 23.164 209.624 23.216 210.008 23.256C210.08 23.264 210.164 23.268 210.26 23.268C210.356 23.268 210.444 23.268 210.524 23.268C210.636 23.268 210.768 23.264 210.92 23.256C211.072 23.248 211.228 23.232 211.388 23.208C211.644 23.168 211.924 23.104 212.228 23.016C212.54 22.928 212.852 22.808 213.164 22.656C213.884 22.32 214.512 21.976 215.048 21.624C215.592 21.272 216.076 20.944 216.5 20.64C216.932 20.328 217.312 20.036 217.64 19.764C217.976 19.492 218.26 19.252 218.492 19.044C218.804 18.764 219.072 18.508 219.296 18.276C219.528 18.044 219.7 17.872 219.812 17.76L219.908 17.676C220.004 17.58 220.112 17.508 220.232 17.46C220.36 17.404 220.484 17.376 220.604 17.376C220.692 17.376 220.776 17.392 220.856 17.424C220.944 17.448 221.024 17.492 221.096 17.556C221.256 17.692 221.336 17.872 221.336 18.096C221.336 18.216 221.308 18.34 221.252 18.468C221.196 18.596 221.112 18.716 221 18.828C220.968 18.852 220.932 18.884 220.892 18.924C220.852 18.956 220.788 19.008 220.7 19.08C220.62 19.152 220.512 19.244 220.376 19.356C220.24 19.468 220.06 19.616 219.836 19.8C219.62 19.984 219.336 20.212 218.984 20.484C218.632 20.748 218.228 21.044 217.772 21.372C217.548 21.532 217.284 21.708 216.98 21.9C216.684 22.092 216.36 22.292 216.008 22.5C215.656 22.708 215.28 22.92 214.88 23.136C214.488 23.344 214.084 23.544 213.668 23.736C213.244 23.928 212.82 24.08 212.396 24.192C211.972 24.304 211.588 24.376 211.244 24.408C211.132 24.424 211.004 24.432 210.86 24.432C210.724 24.44 210.6 24.444 210.488 24.444C210.304 24.444 210.116 24.436 209.924 24.42C209.732 24.412 209.56 24.4 209.408 24.384C208.96 24.336 208.536 24.268 208.136 24.18C207.736 24.1 207.384 24.016 207.08 23.928C206.776 23.84 206.484 23.748 206.204 23.652C205.924 23.556 205.62 23.44 205.292 23.304C205.132 23.232 204.96 23.152 204.776 23.064C204.6 22.976 204.416 22.876 204.224 22.764L204.236 22.776C204.22 22.768 204.208 22.764 204.2 22.764C204.2 22.756 204.192 22.748 204.176 22.74C204.088 22.692 203.992 22.64 203.888 22.584C203.784 22.528 203.684 22.468 203.588 22.404C203.548 22.38 203.524 22.368 203.516 22.368C203.516 22.36 203.492 22.34 203.444 22.308C202.884 22.66 202.368 22.972 201.896 23.244C201.424 23.508 201 23.736 200.624 23.928C200.456 24.016 200.268 24.104 200.06 24.192C199.852 24.28 199.64 24.356 199.424 24.42C199.344 24.444 199.26 24.46 199.172 24.468C199.084 24.476 198.992 24.48 198.896 24.48C198.792 24.464 198.68 24.424 198.56 24.36C198.456 24.304 198.372 24.228 198.308 24.132C198.244 24.044 198.204 23.944 198.188 23.832L198.2 23.856C198.184 23.76 198.18 23.668 198.188 23.58C198.196 23.492 198.208 23.4 198.224 23.304L198.212 23.316C198.22 23.276 198.236 23.22 198.26 23.148C198.276 23.068 198.296 22.992 198.32 22.92V22.932C198.44 22.532 198.584 22.184 198.752 21.888C198.912 21.584 199.068 21.312 199.22 21.072C199.38 20.832 199.532 20.616 199.676 20.424C199.82 20.224 199.96 20.044 200.096 19.884C200.328 19.596 200.54 19.34 200.732 19.116C200.924 18.892 201.088 18.708 201.224 18.564L201.32 18.48C201.376 18.424 201.42 18.376 201.452 18.336C201.484 18.296 201.52 18.256 201.56 18.216C201.744 18.024 201.888 17.876 201.992 17.772C202.096 17.668 202.216 17.556 202.352 17.436ZM199.148 23.28C199.14 23.28 199.136 23.284 199.136 23.292C199.136 23.292 199.132 23.292 199.124 23.292C199.14 23.292 199.148 23.288 199.148 23.28ZM199.388 23.472C199.396 23.472 199.4 23.464 199.4 23.448C199.4 23.464 199.396 23.472 199.388 23.472ZM238.589 17.256C238.869 17.256 239.065 17.348 239.177 17.532L239.189 17.52C239.245 17.616 239.269 17.724 239.261 17.844C239.253 17.964 239.213 18.088 239.141 18.216C239.069 18.336 238.969 18.46 238.841 18.588C238.721 18.708 238.577 18.816 238.409 18.912C238.353 18.944 238.289 18.98 238.217 19.02C238.153 19.052 238.073 19.092 237.977 19.14C237.937 19.156 237.893 19.176 237.845 19.2C237.805 19.224 237.757 19.252 237.701 19.284C237.509 19.372 237.249 19.488 236.921 19.632C236.601 19.776 236.181 19.96 235.661 20.184C235.141 20.408 234.497 20.672 233.729 20.976C232.969 21.28 232.045 21.62 230.957 21.996C230.429 22.18 229.841 22.376 229.193 22.584C228.545 22.784 227.865 22.988 227.153 23.196C226.793 23.3 226.417 23.404 226.025 23.508C225.641 23.612 225.241 23.716 224.825 23.82C224.393 23.924 223.937 24.028 223.457 24.132C222.985 24.236 222.533 24.324 222.101 24.396C222.013 24.412 221.925 24.42 221.837 24.42C221.757 24.428 221.673 24.44 221.585 24.456C221.561 24.464 221.533 24.468 221.501 24.468C221.477 24.476 221.441 24.48 221.393 24.48C221.377 24.48 221.357 24.48 221.333 24.48C221.317 24.488 221.301 24.492 221.285 24.492H221.045C221.029 24.492 221.013 24.488 220.997 24.48C220.989 24.48 220.973 24.48 220.949 24.48C220.885 24.48 220.825 24.476 220.769 24.468C220.721 24.468 220.653 24.452 220.565 24.42C220.357 24.276 220.205 24.14 220.109 24.012C220.013 23.892 219.937 23.772 219.881 23.652C219.833 23.532 219.793 23.416 219.761 23.304C219.729 23.184 219.705 23.072 219.689 22.968C219.673 22.84 219.661 22.712 219.653 22.584C219.645 22.456 219.641 22.316 219.641 22.164C219.641 21.876 219.653 21.612 219.677 21.372C219.701 21.124 219.729 20.888 219.761 20.664C219.793 20.432 219.821 20.248 219.845 20.112C219.869 19.968 219.889 19.844 219.905 19.74C219.929 19.628 219.953 19.516 219.977 19.404C220.009 19.284 220.045 19.132 220.085 18.948C219.933 18.948 219.813 18.92 219.725 18.864C219.637 18.808 219.569 18.732 219.521 18.636C219.433 18.428 219.457 18.2 219.593 17.952C219.737 17.704 219.937 17.476 220.193 17.268L220.181 17.292C220.213 17.26 220.253 17.228 220.301 17.196C220.301 17.196 220.309 17.192 220.325 17.184C220.333 17.184 220.337 17.18 220.337 17.172C220.361 17.156 220.385 17.144 220.409 17.136C220.441 17.12 220.481 17.092 220.529 17.052C220.537 17.052 220.545 17.048 220.553 17.04C220.793 16.168 221.013 15.404 221.213 14.748C221.413 14.084 221.605 13.476 221.789 12.924C221.973 12.364 222.157 11.816 222.341 11.28C222.533 10.744 222.749 10.172 222.989 9.564C223.229 8.964 223.517 8.276 223.853 7.5C224.197 6.724 224.629 5.816 225.149 4.776C225.509 4.08 225.849 3.452 226.169 2.892C226.497 2.324 226.841 1.808 227.201 1.344L227.285 1.26L227.261 1.272C227.325 1.184 227.413 1.088 227.525 0.983999C227.645 0.871999 227.757 0.775999 227.861 0.695998C227.861 0.695998 227.869 0.691998 227.885 0.683999C227.893 0.683999 227.897 0.679999 227.897 0.671999C227.961 0.631999 228.025 0.599998 228.089 0.575998C228.153 0.543999 228.217 0.523999 228.281 0.515998C228.369 0.499999 228.457 0.503999 228.545 0.527999C228.641 0.543999 228.729 0.571999 228.809 0.611999C228.969 0.699999 229.081 0.799999 229.145 0.911998C229.209 1.024 229.257 1.128 229.289 1.224C229.337 1.384 229.365 1.536 229.373 1.68C229.389 1.816 229.393 1.952 229.385 2.088C229.385 2.224 229.381 2.348 229.373 2.46C229.365 2.564 229.353 2.664 229.337 2.76C229.289 3.128 229.217 3.516 229.121 3.924C229.033 4.324 228.933 4.716 228.821 5.1C228.717 5.46 228.605 5.84 228.485 6.24C228.365 6.632 228.229 7.032 228.077 7.44C227.597 8.736 227.105 9.884 226.601 10.884C226.105 11.884 225.649 12.744 225.233 13.464C224.801 14.2 224.417 14.812 224.081 15.3C223.745 15.788 223.461 16.172 223.229 16.452C223.021 16.708 222.817 16.944 222.617 17.16C222.425 17.368 222.237 17.564 222.053 17.748C221.933 17.868 221.825 17.976 221.729 18.072C221.633 18.16 221.533 18.248 221.429 18.336C221.413 18.384 221.401 18.42 221.393 18.444C221.385 18.46 221.381 18.472 221.381 18.48C221.381 18.488 221.377 18.5 221.369 18.516V18.504C221.281 18.864 221.189 19.296 221.093 19.8C220.997 20.296 220.917 20.82 220.853 21.372C220.837 21.484 220.825 21.612 220.817 21.756C220.817 21.892 220.817 22.016 220.817 22.128C220.817 22.296 220.825 22.464 220.841 22.632C220.857 22.8 220.885 22.968 220.925 23.136C220.925 23.168 220.953 23.224 221.009 23.304C221.145 23.312 221.289 23.308 221.441 23.292C221.593 23.268 221.749 23.24 221.909 23.208H221.897C222.665 23.072 223.405 22.912 224.117 22.728C224.837 22.544 225.477 22.372 226.037 22.212C226.661 22.028 227.253 21.844 227.813 21.66C228.373 21.476 228.905 21.292 229.409 21.108C230.449 20.748 231.353 20.416 232.121 20.112C232.889 19.808 233.561 19.528 234.137 19.272C235.097 18.856 235.837 18.508 236.357 18.228C236.877 17.948 237.237 17.752 237.437 17.64C237.445 17.64 237.453 17.636 237.461 17.628C237.469 17.62 237.481 17.612 237.497 17.604C237.513 17.596 237.525 17.584 237.533 17.568C237.541 17.568 237.537 17.576 237.521 17.592C237.721 17.48 237.913 17.396 238.097 17.34C238.281 17.284 238.445 17.256 238.589 17.256ZM222.521 14.796C222.481 14.916 222.457 14.984 222.449 15C222.441 15.008 222.433 15.012 222.425 15.012C222.425 15.012 222.421 15.028 222.413 15.06C222.405 15.084 222.377 15.168 222.329 15.312C222.529 15.08 222.745 14.808 222.977 14.496C223.209 14.184 223.461 13.824 223.733 13.416C223.957 13.072 224.205 12.668 224.477 12.204C224.749 11.732 225.029 11.216 225.317 10.656C225.605 10.088 225.893 9.484 226.181 8.844C226.477 8.196 226.761 7.528 227.033 6.84C227.193 6.408 227.341 5.96 227.477 5.496C227.621 5.032 227.749 4.584 227.861 4.152V4.164C227.909 3.956 227.953 3.728 227.993 3.48C228.041 3.232 228.081 2.964 228.113 2.676C228.137 2.532 228.149 2.388 228.149 2.244C228.109 2.308 228.065 2.376 228.017 2.448C227.977 2.512 227.937 2.576 227.897 2.64C227.745 2.888 227.589 3.152 227.429 3.432C227.277 3.704 227.133 3.976 226.997 4.248C226.701 4.824 226.405 5.428 226.109 6.06C225.813 6.684 225.517 7.332 225.221 8.004C224.901 8.74 224.613 9.42 224.357 10.044C224.109 10.66 223.893 11.204 223.709 11.676C223.693 11.716 223.673 11.764 223.649 11.82C223.625 11.876 223.605 11.924 223.589 11.964C223.573 12.004 223.561 12.04 223.553 12.072C223.545 12.104 223.533 12.136 223.517 12.168C223.477 12.272 223.433 12.38 223.385 12.492C223.345 12.604 223.305 12.708 223.265 12.804L223.277 12.792C223.141 13.128 223.009 13.46 222.881 13.788C222.761 14.116 222.641 14.452 222.521 14.796Z" fill="white"/>
</svg>
